.................
----------------------------------------------------------------------
Ran 17 tests in 0.003s

OK
Name               Stmts   Miss Branch BrPart  Cover   Missing
--------------------------------------------------------------
Diplomacy.py          50      0     42      0   100%
TestDiplomacy.py      80      0      0      0   100%
--------------------------------------------------------------
TOTAL                130      0     42      0   100%
